000000000000000000010102464c457f
00000000000001000000000100f30002
0000000000003e580000000000000040
00120015004000020038004000000000
00000000000000000000000700000001
00000000000000000000000000000000
00000000000015d000000000000014a8
00000004000000070000000000001000
000000000000160000000000000014c0
00000000000000000000000000001600
00000000000000400000000000000044
00000000000000000000000000000000
00000000000000000000000000000000
00000000000000000000000000000000
00000000000000000000000000000000
00000000000000000000000000000000
0000001300000013000000132940006f
00000013000000130000001300000013
00000013000000130000001300000013
00000013000000130000001300000013
0000001300000013000000130000006f
00000013000000130000001300000013
00000013000000130000001300000013
00000013000000130000001300000013
0000001300000013000000130000006f
00000013000000130000001300000013
00000013000000130000001300000013
00000013000000130000001300000013
0000001300000013000000131d40006f
00000013000000130000001300000013
00000013000000130000001300000013
00000013000000130000001300000013
00000213000001930000011300000093
00000413000003930000031300000293
00000613000005930000051300000493
00000813000007930000071300000693
00000a13000009930000091300000893
00000c1300000b9300000b1300000a93
00000e1300000d9300000d1300000c93
0300029300000f9300000f1300000e93
000032b73002a073008002933002b073
f00022f33002a0730000c2b73002a073
300022f36440006f4d2005130002c663
1e63a823000013970062f3330000c337
00301073080304630062f33300003337
f00001d3f0000153f00000d3f0000053
f00003d3f0000353f00002d3f0000253
f00005d3f0000553f00004d3f0000453
f00007d3f0000753f00006d3f0000653
f00009d3f0000953f00008d3f0000853
f0000bd3f0000b53f0000ad3f0000a53
f0000dd3f0000d53f0000cd3f0000c53
f0000fd3f0000f53f0000ed3f0000e53
2e720213000012176c01819300001197
00b5706300100593f1002573fc027213
011111130015011300c2023301151613
34129073a30282930000129700410133
0021382300113423ef01011310000073
02613823025134230241302300313c23
04a13823049134230481302302713c23
06e1382306d1342306c1302304b13c23
09213823091134230901302306f13c23
0b6138230b5134230b41302309313c23
0da138230d9134230d8130230b713c23
0fe138230fd134230fc130230db13c23
00010613341025f3342025730ff13c23
0101310300813083341510734dc000ef
03013303028132830201320301813183
05013503048134830401340303813383
07013703068136830601360305813583
09013903088138830801380307813783
0b013b030a813a830a013a0309813983
0d013d030c813c830c013c030b813b83
0f013f030e813e830e013e030d813d83
0402260310000073110101130f813f83
0016061b010787b30002079300060813
00f50a6300a0079304c2202300a78023
000080670000051300f6066304000793
00000073000205930010051304000893
0005b783000080670000051304022023
00f5b023001787930005b78300a78023
1681382315413823e801011300008067
1551342315313c231721302316913423
1381382313713c2316113c2315613023
0005091311b13c2313a1302313913423
0250099300068a930006041300058493
04050c630140006f8e018a1305500b13
00044503000900e70004859300140413
fff00d9300140b9300144503ff3516e3
00000613000d8c1302000d13000b8713
2cbb6663001704130ff7f593fdd5079b
0007a783014787b3002797930ff7f793
16813483170134031781308300078067
14813a8315013a031581398316013903
12813c8313013c0313813b8314013b03
000080671801011311813d8312013d03
000407130017450300000c13000c5463
2ac754630010071300800793f91ff06f
0141069302fdf533008a8a93000abd83
2980006f00fdf66300a1282300100c93
001c8b9b0046869302fdddb3000b8c93
01912423fefdf4e3feb6ae2302fdf5b3
000d051300048593038bd263fffc0d9b
feebc6e3001d871b000900e7fffd8d9b
11010713002c9793ef705ce300812c83
40f007bb00a53793f007a50300f707b3
0004859300a7853b0577879bfd97f793
fcf046e3001c879b000900e7fffc8c9b
008a8a9300174503000aad83ebdff06f
fff00d93000d8c13ec0c56e300040713
0004071302d00d1300174503ec1ff06f
0004071303000d1300174503eb1ff06f
fd050d9b0090069300174783ea1ff06f
000407131ae6e06300078593fd07871b
003d9d9b001d979b0007450300170713
00900693fd05079b00bd8dbb01b78dbb
f89ff06ffcf6fce300050593fd0d8d9b
000900e7008a8a9300048593000aa503
000abd8314c7d06300100793e1dff06f
00048593ea0dd8e300a00793008a8a93
41b00db3000900e700f1342302d00513
0016061b00174503e95ff06f00813783
008a8a93000abb83dfdff06f00040713
0ced086302d00713058054630e0b8663
40ac0c3b1bd000ef000b8513000d8593
00048593fffc8c9b000c0c9303805663
00100793fe0c98e3000900e7000d0513
000bc50300e80c3b4187883bfffc071b
fffd8d9b000dc663fff00d13d6050ee3
000900e7001b8b930004859301ad8e63
d58058e3fe0510e3fffc0c1b000bc503
000900e70200051300048593fffc0c1b
dcdff06f00a00793d39ff06ffe0c18e3
0004859303000513dc5ff06f01000793
000900e70780051300048593000900e7
0250051300048593dadff06f01000793
000bc503cf5ff06f000b8413000900e7
000017b7f71ff06ffff00d13fa0500e3
000aad83ec0612e3f11ff06f23078b93
0004071300078513ec1ff06f008a8a93
008a8a93000aed83d4061ee3e15ff06f
fffc0d9b00100b9300012423d59ff06f
00151513db1ff06fd98bc2e300000c93
ff0101130000006f7807907300156793
01010413002006930011342300813023
08d50463f80101130c0025730080076f
a7378793000017b700e50a6300800713
05d00693088637030000006f78079073
0506350306d70a634d2006932cd70c63
00e7b02305863683fc07f79303f10793
00e7bc2300d7b82300a7b42306063703
781716f300000713780790730330000f
00813083ff0401130007b783fe068ee3
0101011304f638230001340300458513
00f777b30005a7830007270300008067
05062703fd1ff06f00000793f6f71ce3
aa018793c00025730c00e57300070463
000016b740d505330007b68300071c63
c020257300a7b02308d7b82323868693
000016b740d505330087b68300071c63
cc00257300a7b42308d7bc2324068693
000016b740d505330107b68300071c63
cc10257300a7b8230ad7b02324868693
000016b740d505330187b68300071c63
cc20257300a7bc230ad7b42325068693
000016b740d505330207b68300071c63
cc30257302a7b0230ad7b82325868693
000016b740d505330287b68300071c63
cc40257302a7b4230ad7bc2326068693
000016b740d505330307b68300071c63
cc50257302a7b8230cd7b02326868693
000016b740d505330387b68300071c63
cc60257302a7bc230cd7b42327068693
000016b740d505330407b68300071c63
cc70257304a7b0230cd7b82327868693
000016b740d505330487b68300071c63
cc80257304a7b4230cd7bc2328068693
000016b740d505330507b68300071c63
cc90257304a7b8230ed7b02328868693
000016b740d505330587b68300071c63
cca0257304a7bc230ed7b42329068693
000016b740d505330607b68300071c63
ccb0257306a7b0230ed7b82329868693
000016b740d505330687b68300071c63
ccc0257306a7b4230ed7bc232a068693
000016b740d505330707b68300071c63
ccd0257306a7b82310d7b0232a868693
000016b740d505330787b68300071c63
cce0257306a7bc2310d7b4232b068693
000016b740d505330807b68300071c63
ccf0257308a7b02310d7b8232b868693
0000173740e505330887b70302071863
0c00f57308a7b42310e7bc232c070713
cd1ff0ef05063503d75ff06f00000793
0000059305d00893d91ff06f08a7b423
4d2008930000006f0000007300000613
00008067000000730000061300000593
000504130011342300813023ff010113
001005130400089300050613454000ef
00013403008130830000007300040593
0000006f000504630000806701010113
0171071302113423fd01011300008067
40f007b300a7b79300f5779300710613
00d787bb0577879300f57693fd97f793
fcc71ce300455513fff7071300f70023
000506133dc000ef00010c2300810513
00000073008105930010051304000893
fa010113000080670301011302813083
02b134230005061302c1382302810313
00000593000306934ac0051302d13c23
0501382304f1342304e1302300113c23
01813083fdcff0ef0061342305113c23
fa010113000080670601011300000513
0005041300a134230281302303010313
4fc005130005861302d13c2302c13823
04f13423021134230003069300810593
00613c2305113c230501382304e13023
008135030007802300813783f84ff0ef
06010113020134034085053b02813083
0321382302913c23fb01011300008067
03413023409904b30002049300020913
03313423048130230411342300058a13
017134230161382301513c2305010413
0004861300020513d801011300050993
044206130b0000ef00020b13bf018593
1bc000ef00000593009b053341260633
03f10a93e61ff0ef00098513000a0593
fc0afa93aa0184930000051300000593
0009099300050b9309048913388000ef
008484930100006f00001b37000a8a13
fe0688e30004b6830334866300890913
ed1ff0ef2e0b0593000a051300093603
fd349ee30089091300aa0a3300848493
0005061321c000ef000a8513034a8063
00000073000a85930010051304000893
0077f79300a5c7b3d75ff0ef000b8513
0ec7fe63007007930e07926300c508b3
fc080793ff88f81304079a6300757793
000707930005869306f5666300050713
00868693008787930006b60303077863
01078833fff74793ff07e8e3fec7bc23
010585b30107073300880813ff887813
0005c683000507130000806709176863
00158593fed70fa30077779300170713
f8f77ee3fc080793ff88f813fe0796e3
0185bf030105bf830085b2830005b383
0385b6030305b3030285be030205be83
fa773c23ff85b6830487071304858593
fdd73c23fde73823fdf73423fc573023
fed73c23fec73823fe673423ffc73023
0315746300050713f45ff06ffaf768e3
fef70fa300158593001707130005c783
ff1562e30005071300008067ff1768e3
0005071300f0081300008067f55ff06f
06059e630a07906300f7779302c87a63
00b7302300e686b300f67613ff067693
00061463fed76ae30107071300b73423
000002970026969340c806b300008067
00b706a300b7072300c68067005686b3
00b704a300b7052300b705a300b70623
00b702a300b7032300b703a300b70423
00b700a300b7012300b701a300b70223
008596930ff5f5930000806700b70023
0205969300d5e5b30105969300d5e5b3
0000029700279693f6dff06f00d5e5b3
00028093f98680e700008293005686b3
f6c874e300f6063340f70733ff078793
06079a630005059300757793f3dff06f
00850513fff006132107b683000017b7
00d7e7b300d7073300d7f733ff853783
40b505b3ff854783fec784e300f767b3
ffa5478304078a63ff95478306078263
ffc5478304078a63ffb5478306078263
04070c6304078a63ffe54683ffd54703
f8070ae30000806704068c63fff58513
fe0798e3007577130015051300054783
ff95851300008067fff5051340b50533
ffb5851300008067ff85851300008067
ffc5851300008067ffa5851300008067
ffe5851300008067ffd5851300008067
02078a630005478302058e6300008067
fff746830100006f00b505b300150793
fef598e3001787130007079300068c63
0000806740a785330000806740a58533
ff010113000015370000806700000513
00813083b25ff0ef0011342321850513
000015b7000080670101011300000513
017006132c8585930010051304000893
0000000000008067fff0051300000073
66206f6c6c65480a7f7f7f7f7f7f7f7f
0000000a342074656b636f52206d6f72
000000656c6379630000296c6c756e28
00003068637261750074657274736e69
00003268637261750000316863726175
00003468637261750000336863726175
00003668637261750000356863726175
00003868637261750000376863726175
00303168637261750000396863726175
00323168637261750031316863726175
00343168637261750033316863726175
6e656d656c706d490035316863726175
000a216f6f66202c29286e69616d2074
00000000000000000a6425203d207325
00000878000005740000087800000608
000006c4000008780000087800000878
00000600000006e40000087800000878
0000070400000704000006f400000878
00000704000007040000070400000704
00000878000007040000070400000704
00000878000008780000087800000878
00000878000008780000087800000878
00000878000008780000087800000878
00000878000008780000087800000878
00000878000008780000087800000878
00000878000008780000087800000878
00000878000008780000087800000878
00000878000008780000087800000878
00000878000008780000087800000878
00000878000008780000087800000878
00000878000008780000076400000750
00000878000008780000087800000878
00000878000008780000079800000878
00000878000008780000085800000614
000008780000084800000878000007a8
00000000000000140000085000000878
0000000000020d1b0101080100527a01
00000120fffffa500000001c00000014
00000034000000140000000000000000
0000000000000000000000d0fffffc34
00000044fffffcec0000004c00000014
00000000000000000000000000000000
00000000000000000000000000000000
00000000000000000000000000000000
00000000000000000000000000000000
00000000000000000000000000000000
00000000000000000000000000000000
00000000000000000000000000000000
00000000000000000000000000000000
00000000000000000000000000000000
00000000000000000000000000000000
00000000000000000000000000000000
00000000000000000000000000000000
00000000000000000000000000000000
00000000000000000000000000000000
00000000000000000000000000000000
00000000000000000000000000000000
00000000000000000000000000000000
00000000000000000000000000000000
00000000000000000000000000000000
00000000000000000000000000000000
00000000000000000000000000000000
00000000000000000000000000000000
00000000000000000000000000000000
00000000000000000000000000000000
00000000000000000000000000000000
00000000000000000000000000000000
00000000000000000000000000000000
00000000000000000000000000000000
00000000000000000000000000000000
00000000000000000000000000000000
00000000000000000000000000000000
00000000000000000000000000000000
00000000000000000000000000000000
00000000000000000000000000000000
00000000000000000000000000000000
00000000000000000000000000000000
00000000000000000000000000000000
00000000000000000000000000000000
00000000000000000000000000000000
00000000000000000000000000000000
00000000000000000000000000000000
00000000000000000000000000000000
00000000000000000000000000000000
00000000000000000000000000000000
00000000000000000000000000000000
00000000000000000000000000000000
00000000000000000000000000000000
00000000000000000000000000000000
00000000000000000000000000000000
00000000000000000000000000000000
00000000000000000000000000000000
00000000000000000000000000000000
00000000000000000000000000000000
00000000000000000000000000000000
00000000000000000000000000000000
00000000000000000000000000000000
00000000000000000000000000000000
00000000000000000000000000000000
00000000000000000000000000000000
00000000000000000000000000000000
00000000000000000000000000000000
00000000000000000000000000000000
00000000000000000000000000000000
00000000000000000000000000000000
00000000000000000000000000000000
00000000000000000000000000000000
00000000000000000000000000000000
00000000000000000000000000000000
00000000000000000000000000000000
00000000000000000000000000000000
00000000000000000000000000000000
00000000000000000000000000000000
00000000000000000000000000000000
00000000000000000000000000000000
00000000000000000000000000000000
00000000000000000000000000000000
00000000000000000000000000000000
00000000000000000000000000000000
00000000000000000000000000000000
00000000000000000000000000000000
00000000000000000000000000000000
00000000000000000000000000000000
00000000000000000000000000000000
00000000000000000000000000000000
00000000000000000000000000000000
00000000000000000000000000000000
00000000000000000000000000000000
00000000000000000000000000000000
00000000000000000000000000000000
00000000000000000000000000000000
00000000000000000000000000000000
00000000000000000000000000000000
00000000000000000000000000000000
00000000000000000000000000000000
00000000000000000000000000000000
00000000000000000000000000000000
00000000000000000000000000000000
00000000000000000000000000000000
00000000000000000000000000000000
00000000000000000000000000000000
00000000000000000000000000000000
00000000000000000000000000000000
00000000000000000000000000000000
00000000000000000000000000000000
00000000000000000000000000000000
00000000000000000000000000000000
00000000000000000000000000000000
00000000000000000000000000000000
00000000000000000000000000000000
00000000000000000000000000000000
00000000000000000000000000000000
00000000000000000000000000000000
00000000000000000000000000000000
00000000000000000000000000000000
00000000000000000000000000000000
00000000000000000000000000000000
00000000000000000000000000000000
00000000000000000000000000000000
00000000000000000000000000000000
00000000000000000000000000000000
00000000000000000000000000000000
00000000000000000000000000000000
00000000000000000000000000000000
00000000000000000000000000000000
00000000000000000000000000000000
00000000000000000000000000000000
00000000000000000000000000000000
00000000000000000000000000000000
00000000000000000000000000000000
00000000000000000000000000000000
00000000000000000000000000000000
00000000000000000000000000000000
00000000000000000000000000000000
00000000000000000000000000000000
00000000000000000000000000000000
00000000000000000000000000000000
00000000000000000000000000000000
00000000000000000000000000000000
00000000000000000000000000000000
00000000000000000000000000000000
00000000000000000000000000000000
00000000000000000000000000000000
00000000000000000000000000000000
00000000000000000000000000000000
00000000000000000000000000000000
00000000000000000000000000000000
00000000000000000000000000000000
00000000000000000000000000000000
00000000000000000000000000000000
00000000000000000000000000000000
00000000000000000000000000000000
00000000000000000000000000000000
00000000000000000000000000000000
00000000000000000000000000000000
00000000000000000000000000000000
00000000000000000000000000000000
00000000000000000000000000000000
00000000000000000000000000000000
00000000000000000000000000000000
00000000000000000000000000000000
00000000000000000000000000000000
00000000000000000000000000000000
00000000000000000000000000000000
00000000000000000000000000000000
00000000000000000000000000000000
00000000000000000000000000000000
00000000000000000000000000000000
00000000000000000000000000000000
00000000000000000000000000000000
00000000000000000000000000000000
00000000000000000000000000000000
00000000000000000000000000000000
00000000000000000000000000000000
00000000000000000000000000000000
00000000000000000000000000000000
00000000000000000000000000000000
00000000000000000000000000000000
00000000000000000000000000000000
00000000000000000000000000000000
00000000000000000000000000000000
00000000000000000000000000000000
00000000000000000000000000000000
